{
	"events": [
		{
			"action": "join",
			"character": "character-1627692411.json",
			"event_id": "dialogic_002",
			"mirror": false,
			"portrait": "",
			"position": {
				"0": false,
				"1": false,
				"2": false,
				"3": false,
				"4": false
			}
		},
		{
			"character": "character-1627692411.json",
			"event_id": "dialogic_001",
			"portrait": "",
			"text": "Hello world, my name is [color=#A5EFAC]FJ4[/color]! I am a marbel-sized minibot capable of basic object manipulation using my [color=#ffd700]electromagnetic beak[/color]."
		},
		{
			"character": "character-1627692411.json",
			"event_id": "dialogic_001",
			"portrait": "",
			"text": "Sorry if I seem a bit shaky,[br]you can't expect too much from an old bot like me...\nPlus, I'm a bit nervous. As you know, today you will be evaluating my abilities with a series of puzzles. I will be sure to perform at up most efficiency to assure my success!\nOtherwise I will be... [wave amp=50 freq=2]decommissioned...[/wave]"
		},
		{
			"character": "character-1627692411.json",
			"event_id": "dialogic_001",
			"portrait": "",
			"text": "...\nSo, who's ready for some testing!"
		},
		{
			"call_node": {
				"arguments": [
					"res://scenes/DayLevel1.tscn"
				],
				"method_name": "dialogue_load_scene",
				"target_node_path": "/root/GameManager"
			},
			"event_id": "dialogic_042"
		},
		{
			"event_id": "dialogic_022",
			"transition_duration": 1
		}
	],
	"metadata": {
		"dialogic-version": "1.2.5",
		"file": "timeline-1627692598.json",
		"name": "DayCutscene"
	}
}
