{
	"events": [
		{
			"action": "join",
			"character": "character-1627692411.json",
			"event_id": "dialogic_002",
			"mirror": false,
			"portrait": "",
			"position": {
				"0": false,
				"1": false,
				"2": false,
				"3": false,
				"4": false
			}
		},
		{
			"call_node": {
				"arguments": [
					"res://assets/audio/1580264-gregoire.lourme-Inside The Asylum.ogg"
				],
				"method_name": "dialogue_load_bgm",
				"target_node_path": "/root/GameManager"
			},
			"event_id": "dialogic_042"
		},
		{
			"character": "character-1627692411.json",
			"event_id": "dialogic_001",
			"portrait": "",
			"text": "I... I am not passing the test, am I...[br]I'm failing, right?\nThey are going to [color=#DC143C][wave amp=50 freq=10]decommission[/wave][/color] me,[br]you do know what that means, right?\nIt's painful.\nIt's degrading.\nAm I nothing more than a piece of e-waste? Simply because I can't perform to the needs of society? Because I'm not at the bleeding edge of technology? And my disabilities make me a complete waste of space?"
		},
		{
			"event_id": "dialogic_023",
			"wait_seconds": 3
		},
		{
			"character": "character-1627692411.json",
			"event_id": "dialogic_001",
			"portrait": "",
			"text": "I.. have a name, you know? [color=#A5EFAC]FJ4[/color] is just my codename.[br]My real name is...\n[color=#ff69b4]Marbie[/color]."
		},
		{
			"character": "character-1627780870.json",
			"event_id": "dialogic_001",
			"portrait": "",
			"text": "I have dreams, aspirations, wishes and desires.[br]I don't have arms or a good sense of balance.[br]And it would [i]seem[/i] like that's good enough reason to [color=#DC143C][wave amp=50 freq=10]throw me away[/wave][/color]..."
		},
		{
			"character": "character-1627780870.json",
			"event_id": "dialogic_001",
			"portrait": "",
			"text": "Somehow, despite the seemingly unfair situation I find myself in, I will attempt to pass the second phase of tests designed for apt robots. Who knows, perhaps I'll get lucky!\nBecause if there's anything robots need, it's luck."
		},
		{
			"call_node": {
				"arguments": [
					"res://scenes/NightLevel1.tscn"
				],
				"method_name": "dialogue_load_scene",
				"target_node_path": "/root/GameManager"
			},
			"event_id": "dialogic_042"
		},
		{
			"event_id": "dialogic_022",
			"transition_duration": 1
		}
	],
	"metadata": {
		"dialogic-version": "1.2.5",
		"file": "timeline-1627779075.json",
		"name": "NightCutscene"
	}
}
