{
	"color": "#ffa5efac",
	"description": "",
	"display_name": "",
	"display_name_bool": false,
	"id": "character-1627692411.json",
	"mirror_portraits": false,
	"name": "FJ4",
	"nickname": "Marbie",
	"nickname_bool": true,
	"offset_x": 0,
	"offset_y": 0,
	"portraits": [
		{
			"name": "Default",
			"path": ""
		}
	],
	"scale": 100
}
