[gd_scene load_steps=3 format=2]

[ext_resource path="res://assets/models/cup/coffee_cup.obj" type="ArrayMesh" id=1]

[sub_resource type="SpatialMaterial" id=1]
roughness = 0.2

[node name="CofeeCup" type="StaticBody"]

[node name="coffee_cup" type="MeshInstance" parent="."]
transform = Transform( 0.145, 0, 0, 0, 0.145, 0, 0, 0, 0.145, 0.92588, -2.61872, 0 )
mesh = ExtResource( 1 )
material/0 = SubResource( 1 )
