[gd_scene load_steps=6 format=2]

[ext_resource path="res://resources/materials/PavingStones046.material" type="Material" id=1]
[ext_resource path="res://resources/materials/Metal001.material" type="Material" id=2]
[ext_resource path="res://src/Enviroments/NearDayWorldEnvironment.tscn" type="PackedScene" id=3]

[sub_resource type="SphereMesh" id=1]

[sub_resource type="PlaneMesh" id=2]

[node name="Spatial" type="Spatial"]

[node name="MeshInstance" type="MeshInstance" parent="."]
transform = Transform( 0.887277, 0, -0.461238, 0, 1, 0, 0.461238, 0, 0.887277, 0, 1, 0 )
mesh = SubResource( 1 )
material/0 = ExtResource( 2 )

[node name="MeshInstance2" type="MeshInstance" parent="."]
transform = Transform( 5, 0, 0, 0, 1, 0, 0, 0, 5, -0.011446, 0.0173666, -0.000750542 )
mesh = SubResource( 2 )
material/0 = ExtResource( 1 )

[node name="Camera" type="Camera" parent="."]
transform = Transform( -0.630446, 0.200904, -0.749784, 0, 0.965926, 0.258819, 0.776233, 0.163171, -0.608964, -3.31049, 2.16911, -2.65758 )
current = true

[node name="WorldEnvironment" parent="." instance=ExtResource( 3 )]

[node name="ReflectionProbe" type="ReflectionProbe" parent="."]
transform = Transform( 1, 0, 0, 0, 1, 0, 0, 0, 1, 0, 1, 0 )
extents = Vector3( 5, 5, 5 )
box_projection = true
